{
  "name": "clippie",
  "description": "Clipboard interface to gpaste-client output",
  "gettext-domain": "clippie-blackjackshellac",
  "uuid": "clippie@blackjackshellac.ca",
  "shell-version": [
    "3.36", "3.38",
    "40"
  ],
  "settings-schema": "org.gnome.shell.extensions.clippie-blackjackshellac",
  "url": "https://github.com/blackjackshellac/clippie",
  "version": "4"
}
